Unofficial Solutions to R for Data Science
…
5.2 Filter rows with filter()

5.2.1 Exercises

1 - Find all flights that

1. Had an arrival delay of two or more hours

library(tidyverse)

flights <- nycflights13::flights

filter(flights, arr_delay >= 120)

## # A tibble: 10,200 x 19
##     year month   day dep_time sched_dep_time dep_delay arr_time
##    <int> <int> <int>    <int>          <int>     <dbl>    <int>
##  1  2013     1     1      811            630     101       1047
##  2  2013     1     1      848           1835     853       1001
##  3  2013     1     1      957            733     144       1056
##  4  2013     1     1     1114            900     134       1447
##  5  2013     1     1     1505           1310     115       1638
##  6  2013     1     1     1525           1340     105       1831
##  7  2013     1     1     1549           1445      64.0     1912
##  8  2013     1     1     1558           1359     119       1718
##  9  2013     1     1     1732           1630      62.0     2028
## 10  2013     1     1     1803           1620     103       2008
## # ... with 10,190 more rows, and 12 more variables: sched_arr_time <int>,
## #   arr_delay <dbl>, carrier <chr>, flight <int>, tailnum <chr>,
## #   origin <chr>, dest <chr>, air_time <dbl>, distance <dbl>, hour <dbl>,
## #   minute <dbl>, time_hour <dttm>

2. Flew to Houston (IAH or HOU)

filter(flights, dest %in% c('IAH', 'HOU'))

## # A tibble: 9,313 x 19
##     year month   day dep_time sched_dep_time dep_delay arr_time
##    <int> <int> <int>    <int>          <int>     <dbl>    <int>
##  1  2013     1     1      517            515      2.00      830
##  2  2013     1     1      533            529      4.00      850
##  3  2013     1     1      623            627   -  4.00      933
##  4  2013     1     1      728            732   -  4.00     1041
##  5  2013     1     1      739            739      0        1104
##  6  2013     1     1      908            908      0        1228
##  7  2013     1     1     1028           1026      2.00     1350
##  8  2013     1     1     1044           1045   -  1.00     1352
##  9  2013     1     1     1114            900    134        1447
## 10  2013     1     1     1205           1200      5.00     1503
## # ... with 9,303 more rows, and 12 more variables: sched_arr_time <int>,
## #   arr_delay <dbl>, carrier <chr>, flight <int>, tailnum <chr>,
## #   origin <chr>, dest <chr>, air_time <dbl>, distance <dbl>, hour <dbl>,
## #   minute <dbl>, time_hour <dttm>

3. Were operated by United, American, or Delta

filter(flights, carrier %in% c('UA','AA','DL'))

## # A tibble: 139,504 x 19
##     year month   day dep_time sched_dep_time dep_delay arr_time
##    <int> <int> <int>    <int>          <int>     <dbl>    <int>
##  1  2013     1     1      517            515      2.00      830
##  2  2013     1     1      533            529      4.00      850
##  3  2013     1     1      542            540      2.00      923
##  4  2013     1     1      554            600     -6.00      812
##  5  2013     1     1      554            558     -4.00      740
##  6  2013     1     1      558            600     -2.00      753
##  7  2013     1     1      558            600     -2.00      924
##  8  2013     1     1      558            600     -2.00      923
##  9  2013     1     1      559            600     -1.00      941
## 10  2013     1     1      559            600     -1.00      854
## # ... with 139,494 more rows, and 12 more variables: sched_arr_time <int>,
## #   arr_delay <dbl>, carrier <chr>, flight <int>, tailnum <chr>,
## #   origin <chr>, dest <chr>, air_time <dbl>, distance <dbl>, hour <dbl>,
## #   minute <dbl>, time_hour <dttm>

4. Departed in summer (July, August, and September)

filter(flights, month %in% c(7,8,9))

## # A tibble: 86,326 x 19
##     year month   day dep_time sched_dep_time dep_delay arr_time
##    <int> <int> <int>    <int>          <int>     <dbl>    <int>
##  1  2013     7     1        1           2029    212         236
##  2  2013     7     1        2           2359      3.00      344
##  3  2013     7     1       29           2245    104         151
##  4  2013     7     1       43           2130    193         322
##  5  2013     7     1       44           2150    174         300
##  6  2013     7     1       46           2051    235         304
##  7  2013     7     1       48           2001    287         308
##  8  2013     7     1       58           2155    183         335
##  9  2013     7     1      100           2146    194         327
## 10  2013     7     1      100           2245    135         337
## # ... with 86,316 more rows, and 12 more variables: sched_arr_time <int>,
## #   arr_delay <dbl>, carrier <chr>, flight <int>, tailnum <chr>,
## #   origin <chr>, dest <chr>, air_time <dbl>, distance <dbl>, hour <dbl>,
## #   minute <dbl>, time_hour <dttm>

5. Arrived more than two hours late, but didn’t leave late

filter(flights, dep_delay <= 0, arr_delay >= 120)

## # A tibble: 29 x 19
##     year month   day dep_time sched_dep_time dep_delay arr_time
##    <int> <int> <int>    <int>          <int>     <dbl>    <int>
##  1  2013     1    27     1419           1420     -1.00     1754
##  2  2013    10     7     1350           1350      0        1736
##  3  2013    10     7     1357           1359     -2.00     1858
##  4  2013    10    16      657            700     -3.00     1258
##  5  2013    11     1      658            700     -2.00     1329
##  6  2013     3    18     1844           1847     -3.00       39
##  7  2013     4    17     1635           1640     -5.00     2049
##  8  2013     4    18      558            600     -2.00     1149
##  9  2013     4    18      655            700     -5.00     1213
## 10  2013     5    22     1827           1830     -3.00     2217
## # ... with 19 more rows, and 12 more variables: sched_arr_time <int>,
## #   arr_delay <dbl>, carrier <chr>, flight <int>, tailnum <chr>,
## #   origin <chr>, dest <chr>, air_time <dbl>, distance <dbl>, hour <dbl>,
## #   minute <dbl>, time_hour <dttm>

6. Were delayed by at least an hour, but made up over 30 minutes in flight

filter(flights, dep_delay >= 60, dep_delay > arr_delay + 30)

## # A tibble: 1,844 x 19
##     year month   day dep_time sched_dep_time dep_delay arr_time
##    <int> <int> <int>    <int>          <int>     <dbl>    <int>
##  1  2013     1     1     2205           1720     285         46
##  2  2013     1     1     2326           2130     116        131
##  3  2013     1     3     1503           1221     162       1803
##  4  2013     1     3     1839           1700      99.0     2056
##  5  2013     1     3     1850           1745      65.0     2148
##  6  2013     1     3     1941           1759     102       2246
##  7  2013     1     3     1950           1845      65.0     2228
##  8  2013     1     3     2015           1915      60.0     2135
##  9  2013     1     3     2257           2000     177         45
## 10  2013     1     4     1917           1700     137       2135
## # ... with 1,834 more rows, and 12 more variables: sched_arr_time <int>,
## #   arr_delay <dbl>, carrier <chr>, flight <int>, tailnum <chr>,
## #   origin <chr>, dest <chr>, air_time <dbl>, distance <dbl>, hour <dbl>,
## #   minute <dbl>, time_hour <dttm>

7. Departed between midnight and 6am (inclusive)

filter(flights, dep_time >= 0, dep_time <= 600)

## # A tibble: 9,344 x 19
##     year month   day dep_time sched_dep_time dep_delay arr_time
##    <int> <int> <int>    <int>          <int>     <dbl>    <int>
##  1  2013     1     1      517            515      2.00      830
##  2  2013     1     1      533            529      4.00      850
##  3  2013     1     1      542            540      2.00      923
##  4  2013     1     1      544            545     -1.00     1004
##  5  2013     1     1      554            600     -6.00      812
##  6  2013     1     1      554            558     -4.00      740
##  7  2013     1     1      555            600     -5.00      913
##  8  2013     1     1      557            600     -3.00      709
##  9  2013     1     1      557            600     -3.00      838
## 10  2013     1     1      558            600     -2.00      753
## # ... with 9,334 more rows, and 12 more variables: sched_arr_time <int>,
## #   arr_delay <dbl>, carrier <chr>, flight <int>, tailnum <chr>,
## #   origin <chr>, dest <chr>, air_time <dbl>, distance <dbl>, hour <dbl>,
## #   minute <dbl>, time_hour <dttm>

2 - Another useful dplyr filtering helper is between(). What does it do? Can you use it to simplify the code needed to answer the previous challenges?

between() is a shortcut for x >= left & x <= right. Part 7 of the previous question can be rewritten as:

filter(flights, between(dep_time, 0 , 600))

## # A tibble: 9,344 x 19
##     year month   day dep_time sched_dep_time dep_delay arr_time
##    <int> <int> <int>    <int>          <int>     <dbl>    <int>
##  1  2013     1     1      517            515      2.00      830
##  2  2013     1     1      533            529      4.00      850
##  3  2013     1     1      542            540      2.00      923
##  4  2013     1     1      544            545     -1.00     1004
##  5  2013     1     1      554            600     -6.00      812
##  6  2013     1     1      554            558     -4.00      740
##  7  2013     1     1      555            600     -5.00      913
##  8  2013     1     1      557            600     -3.00      709
##  9  2013     1     1      557            600     -3.00      838
## 10  2013     1     1      558            600     -2.00      753
## # ... with 9,334 more rows, and 12 more variables: sched_arr_time <int>,
## #   arr_delay <dbl>, carrier <chr>, flight <int>, tailnum <chr>,
## #   origin <chr>, dest <chr>, air_time <dbl>, distance <dbl>, hour <dbl>,
## #   minute <dbl>, time_hour <dttm>

3 - How many flights have a missing dep_time? What other variables are missing? What might these rows represent?

sum(is.na(flights$dep_time))

## [1] 8255

There are 8255 flights with missing dep_time. For the flights with missing dep_time, dep_delay, arr_time, arr_delay, and air_time are also missing. It means that these are the flights that were cancelled.

filter(flights, is.na(dep_time))

## # A tibble: 8,255 x 19
##     year month   day dep_time sched_dep_time dep_delay arr_time
##    <int> <int> <int>    <int>          <int>     <dbl>    <int>
##  1  2013     1     1       NA           1630        NA       NA
##  2  2013     1     1       NA           1935        NA       NA
##  3  2013     1     1       NA           1500        NA       NA
##  4  2013     1     1       NA            600        NA       NA
##  5  2013     1     2       NA           1540        NA       NA
##  6  2013     1     2       NA           1620        NA       NA
##  7  2013     1     2       NA           1355        NA       NA
##  8  2013     1     2       NA           1420        NA       NA
##  9  2013     1     2       NA           1321        NA       NA
## 10  2013     1     2       NA           1545        NA       NA
## # ... with 8,245 more rows, and 12 more variables: sched_arr_time <int>,
## #   arr_delay <dbl>, carrier <chr>, flight <int>, tailnum <chr>,
## #   origin <chr>, dest <chr>, air_time <dbl>, distance <dbl>, hour <dbl>,
## #   minute <dbl>, time_hour <dttm>
…
5.4 Select columns with select()

5.4.1 Exercises

1 - Brainstorm as many ways as possible to select dep_time, dep_delay, arr_time, and arr_delay from flights.

One way to select those variables is to include each of them in the select function:

select(flights, dep_time, dep_delay, arr_time, arr_delay)

## # A tibble: 336,776 x 4
##    dep_time dep_delay arr_time arr_delay
##       <int>     <dbl>    <int>     <dbl>
##  1      517      2.00      830     11.0 
##  2      533      4.00      850     20.0 
##  3      542      2.00      923     33.0 
##  4      544     -1.00     1004    -18.0 
##  5      554     -6.00      812    -25.0 
##  6      554     -4.00      740     12.0 
##  7      555     -5.00      913     19.0 
##  8      557     -3.00      709    -14.0 
##  9      557     -3.00      838    - 8.00
## 10      558     -2.00      753      8.00
## # ... with 336,766 more rows

Another way to do it is to use starts_with():

select(flights, starts_with('dep'), starts_with('arr'))

## # A tibble: 336,776 x 4
##    dep_time dep_delay arr_time arr_delay
##       <int>     <dbl>    <int>     <dbl>
##  1      517      2.00      830     11.0 
##  2      533      4.00      850     20.0 
##  3      542      2.00      923     33.0 
##  4      544     -1.00     1004    -18.0 
##  5      554     -6.00      812    -25.0 
##  6      554     -4.00      740     12.0 
##  7      555     -5.00      913     19.0 
##  8      557     -3.00      709    -14.0 
##  9      557     -3.00      838    - 8.00
## 10      558     -2.00      753      8.00
## # ... with 336,766 more rows

2 - What happens if you include the name of a variable multiple times in a select() call?

The repeated variables will not be included. See below.

select(flights, dep_time, dep_time, dep_time)

## # A tibble: 336,776 x 1
##    dep_time
##       <int>
##  1      517
##  2      533
##  3      542
##  4      544
##  5      554
##  6      554
##  7      555
##  8      557
##  9      557
## 10      558
## # ... with 336,766 more rows

3 - What does the one_of() function do? Why might it be helpful in conjunction with this vector?

vars <- c("year", "month", "day", "dep_delay", "arr_delay")

‘one_of()’ allows you to select variables in the character vector. For example:

select(flights, one_of(vars))

## # A tibble: 336,776 x 5
##     year month   day dep_delay arr_delay
##    <int> <int> <int>     <dbl>     <dbl>
##  1  2013     1     1      2.00     11.0 
##  2  2013     1     1      4.00     20.0 
##  3  2013     1     1      2.00     33.0 
##  4  2013     1     1     -1.00    -18.0 
##  5  2013     1     1     -6.00    -25.0 
##  6  2013     1     1     -4.00     12.0 
##  7  2013     1     1     -5.00     19.0 
##  8  2013     1     1     -3.00    -14.0 
##  9  2013     1     1     -3.00    - 8.00
## 10  2013     1     1     -2.00      8.00
## # ... with 336,766 more rows

The 5 variables in the vector vars are selected.

4 - Does the result of running the following code surprise you? How do the select helpers deal with case by default? How can you change that default?

select(flights, contains("TIME"))

## # A tibble: 336,776 x 6
##    dep_time sched_dep_time arr_time sched_arr_time air_time
##       <int>          <int>    <int>          <int>    <dbl>
##  1      517            515      830            819    227  
##  2      533            529      850            830    227  
##  3      542            540      923            850    160  
##  4      544            545     1004           1022    183  
##  5      554            600      812            837    116  
##  6      554            558      740            728    150  
##  7      555            600      913            854    158  
##  8      557            600      709            723     53.0
##  9      557            600      838            846    140  
## 10      558            600      753            745    138  
## # ... with 336,766 more rows, and 1 more variable: time_hour <dttm>
…
5.5 Add new variables with mutate()

5.5.1 Exercises

1 - Currently dep_time and sched_dep_time are convenient to look at, but hard to compute with because they’re not really continuous numbers. Convert them to a more convenient representation of number of minutes since midnight.

flights <- mutate(flights,
                  dep_time_mins = dep_time %/% 100 * 60 + dep_time %% 100,
                  sched_dep_time_mins = sched_dep_time %/% 100 * 60 +
                    sched_dep_time %% 100)

select(flights, starts_with('dep_time'), starts_with('sched'))

## # A tibble: 336,776 x 5
##    dep_time dep_time_mins sched_dep_time sched_arr_time sched_dep_time_mi~
##       <int>         <dbl>          <int>          <int>              <dbl>
##  1      517           317            515            819                315
##  2      533           333            529            830                329
##  3      542           342            540            850                340
##  4      544           344            545           1022                345
##  5      554           354            600            837                360
##  6      554           354            558            728                358
##  7      555           355            600            854                360
##  8      557           357            600            723                360
##  9      557           357            600            846                360
## 10      558           358            600            745                360
## # ... with 336,766 more rows

2 - Compare air_time with arr_time - dep_time. What do you expect to see? What do you see? What do you need to do to fix it?

air_time is the amount of time spent in the air in minutes, and we would expect to see air_time and arr_time - dep_time to be the same. First, let’s define a new variable flight_time as the difference between arr_time and dep_time. Comparing it with air_time:

flights %>% mutate(flight_time = arr_time - dep_time) %>%
  select(air_time, flight_time)

## # A tibble: 336,776 x 2
##    air_time flight_time
##       <dbl>       <int>
##  1    227           313
##  2    227           317
##  3    160           381
##  4    183           460
##  5    116           258
##  6    150           186
##  7    158           358
##  8     53.0         152
##  9    140           281
## 10    138           195
## # ... with 336,766 more rows

The computed flight_time is very different from air_time. The difference is mainly due to the fact that the original arr_time and dep_time are not really continuous numbers. To remedy this, arr_time is converted to minutes since midnight, same as previous question, and then flight_time is recalculated.

flights <- mutate(flights,
                  arr_time_mins = arr_time %/% 100 * 60 + arr_time %% 100)

flights <- mutate(flights, flight_time = arr_time_mins - dep_time_mins)

select(flights, air_time, flight_time)

## # A tibble: 336,776 x 2
##    air_time flight_time
##       <dbl>       <dbl>
##  1    227         193  
##  2    227         197  
##  3    160         221  
##  4    183         260  
##  5    116         138  
##  6    150         106  
##  7    158         198  
##  8     53.0        72.0
##  9    140         161  
## 10    138         115  
## # ... with 336,766 more rows

Again, we see the given air_time is different from the computed flight_time. In fact, only 196 flights have the same air_time and computed flight_time.

sum(flights$air_time == flights$flight_time, na.rm = TRUE)

## [1] 196

3 - Compare dep_time, sched_dep_time, and dep_delay. How would you expect those three numbers to be related?

select(flights, dep_time, sched_dep_time, dep_delay)

## # A tibble: 336,776 x 3
##    dep_time sched_dep_time dep_delay
##       <int>          <int>     <dbl>
##  1      517            515      2.00
##  2      533            529      4.00
##  3      542            540      2.00
##  4      544            545     -1.00
##  5      554            600     -6.00
##  6      554            558     -4.00
##  7      555            600     -5.00
##  8      557            600     -3.00
##  9      557            600     -3.00
## 10      558            600     -2.00
## # ... with 336,766 more rows
…
