Unofficial Solutions to R for Data Science
…
We see that the distributions for most days are very much the same.

2 - Compare dep_time, sched_dep_time and dep_delay. Are they consistent? Explain your findings.

Let’s check if there are any inconsistent records:

flights_dt %>% select(contains('dep')) %>%
  mutate(cal_delay = as.numeric(dep_time - sched_dep_time) / 60) %>%
  filter(dep_delay != cal_delay)

## # A tibble: 810 x 5
##    dep_delay pre_dep_delay dep_time            sched_dep_time     
##        <dbl>         <dbl> <dttm>              <dttm>             
##  1     853         -  5.00 2013-01-01 08:48:00 2013-01-01 18:35:00
##  2      43.0       -  3.00 2013-01-02 00:42:00 2013-01-02 23:59:00
##  3     156           43.0  2013-01-02 01:26:00 2013-01-02 22:50:00
##  4      33.0       -  5.00 2013-01-03 00:32:00 2013-01-03 23:59:00
##  5     185           33.0  2013-01-03 00:50:00 2013-01-03 21:45:00
##  6     156          185    2013-01-03 02:35:00 2013-01-03 23:59:00
##  7      26.0       - 10.0  2013-01-04 00:25:00 2013-01-04 23:59:00
##  8     141           26.0  2013-01-04 01:06:00 2013-01-04 22:45:00
##  9      15.0       -  1.00 2013-01-05 00:14:00 2013-01-05 23:59:00
## 10     127           15.0  2013-01-05 00:37:00 2013-01-05 22:30:00
## # ... with 800 more rows, and 1 more variable: cal_delay <dbl>
…
2 - Explain days(overnight \* 1) to someone who has just started learning R. How does it work?

overnight is a boolean variable. If arr_time is less than dep_time, then the flight arrives on the next day, and overnight is TRUE; otherise, FALSE. Actually, the underlying value of TRUE is 1, and FALSE is 0, so the * 0 can actually be omitted.

If overnight is TRUE, or 1, days(overnight) will add one day to the arr_time and sched_arr_time datetime.

flights_dt %>% 
  mutate(
    overnight = arr_time < dep_time,
    arr_time = arr_time + days(overnight),
    sched_arr_time = sched_arr_time + days(overnight)
  )

## # A tibble: 109,284 x 12
##    origin dest  dep_delay arr_delay pre_dep_delay dep_time           
##    <chr>  <chr>     <dbl>     <dbl>         <dbl> <dttm>             
##  1 JFK    MIA        2.00     33.0           0    2013-01-01 05:42:00
##  2 JFK    BQN      - 1.00    -18.0           2.00 2013-01-01 05:44:00
##  3 JFK    MCO      - 3.00    - 8.00        - 1.00 2013-01-01 05:57:00
##  4 JFK    PBI      - 2.00    - 2.00        - 3.00 2013-01-01 05:58:00
##  5 JFK    TPA      - 2.00    - 3.00        - 2.00 2013-01-01 05:58:00
##  6 JFK    LAX      - 2.00      7.00        - 2.00 2013-01-01 05:58:00
##  7 JFK    BOS        0       - 4.00        - 2.00 2013-01-01 05:59:00
##  8 JFK    ATL      - 4.00    - 8.00          0    2013-01-01 06:06:00
##  9 JFK    SFO       11.0      14.0         - 4.00 2013-01-01 06:11:00
## 10 JFK    RSW        3.00      4.00         11.0  2013-01-01 06:13:00
## # ... with 109,274 more rows, and 6 more variables: sched_dep_time <dttm>,
## #   arr_time <dttm>, sched_arr_time <dttm>, air_time <dbl>,
## #   flight_time <dbl>, overnight <lgl>
…
