Unofficial Solutions to R for Data Science
…
4 - We know that some days of the year are special, and fewer people than usual fly on them. How might you represent that data as a data frame? What would be the primary keys of that table? How would it connect to the existing tables?

We can create a new table special containing the pertaining information of the special dates. To match special with the exisiting tables, the keys would be year, month, and day.

13.3 Keys

13.3.1 Exercises

1 - Add a surrogate key to flights.

flights %>%
  mutate(index = row_number()) %>%
  select(index, everything())

## # A tibble: 109,416 x 25
##    index  year month   day dep_time sched_dep_time dep_delay arr_time
##    <int> <int> <int> <int>    <int>          <int>     <dbl>    <int>
##  1     1  2013     1     1      542            540      2.00      923
##  2     2  2013     1     1      544            545    - 1.00     1004
##  3     3  2013     1     1      557            600    - 3.00      838
##  4     4  2013     1     1      558            600    - 2.00      849
##  5     5  2013     1     1      558            600    - 2.00      853
##  6     6  2013     1     1      558            600    - 2.00      924
##  7     7  2013     1     1      559            559      0         702
##  8     8  2013     1     1      606            610    - 4.00      837
##  9     9  2013     1     1      611            600     11.0       945
## 10    10  2013     1     1      613            610      3.00      925
## # ... with 109,406 more rows, and 17 more variables: sched_arr_time <int>,
## #   arr_delay <dbl>, carrier <chr>, flight <int>, tailnum <chr>,
## #   origin <chr>, dest <chr>, air_time <dbl>, distance <dbl>, hour <dbl>,
## #   minute <dbl>, time_hour <dttm>, dep_time_mins <dbl>,
## #   sched_dep_time_mins <dbl>, arr_time_mins <dbl>, flight_time <dbl>,
## #   pre_dep_delay <dbl>
…
2 - Add the location of the origin and destination (i.e. the lat and lon) to flights.

To better distingush the added location information between origin and destination, we can define suffix to the names of the variables joined to the exisiting table. To illustrate:

flights %>% 
  left_join(airports, by = c('dest' = 'faa')) %>%
  left_join(airports, by = c('origin' = 'faa'), suffix = c('.dest', '.origin')) %>%
  select(dest, origin, contains('lat'), contains('lon'))

## # A tibble: 109,416 x 6
##    dest  origin lat.dest lat.origin lon.dest lon.origin
##    <chr> <chr>     <dbl>      <dbl>    <dbl>      <dbl>
##  1 MIA   JFK        25.8       40.6   - 80.3      -73.8
##  2 BQN   JFK        NA         40.6     NA        -73.8
##  3 MCO   JFK        28.4       40.6   - 81.3      -73.8
##  4 PBI   JFK        26.7       40.6   - 80.1      -73.8
##  5 TPA   JFK        28.0       40.6   - 82.5      -73.8
##  6 LAX   JFK        33.9       40.6   -118        -73.8
##  7 BOS   JFK        42.4       40.6   - 71.0      -73.8
##  8 ATL   JFK        33.6       40.6   - 84.4      -73.8
##  9 SFO   JFK        37.6       40.6   -122        -73.8
## 10 RSW   JFK        26.5       40.6   - 81.8      -73.8
## # ... with 109,406 more rows
…
2 - Filter flights to only show flights with planes that have flown at least 100 flights.

Create a new table that contains planes that have flown over 100 times, then just semi_join().

flights_100 <- flights %>%
  filter(!is.na(dep_delay)) %>%
  group_by(tailnum) %>%
  summarize(n = n()) %>%
  filter(n > 100)

flights %>%
  semi_join(flights_100, by = 'tailnum')

## # A tibble: 71,102 x 24
##     year month   day dep_time sched_dep_time dep_delay arr_time
##    <int> <int> <int>    <int>          <int>     <dbl>    <int>
##  1  2013     1     1      544            545     -1.00     1004
##  2  2013     1     1      557            600     -3.00      838
##  3  2013     1     1      558            600     -2.00      849
##  4  2013     1     1      558            600     -2.00      853
##  5  2013     1     1      559            559      0         702
##  6  2013     1     1      613            610      3.00      925
##  7  2013     1     1      615            615      0        1039
##  8  2013     1     1      639            640     -1.00      739
##  9  2013     1     1      645            647     -2.00      815
## 10  2013     1     1      651            655     -4.00      936
## # ... with 71,092 more rows, and 17 more variables: sched_arr_time <int>,
## #   arr_delay <dbl>, carrier <chr>, flight <int>, tailnum <chr>,
## #   origin <chr>, dest <chr>, air_time <dbl>, distance <dbl>, hour <dbl>,
## #   minute <dbl>, time_hour <dttm>, dep_time_mins <dbl>,
## #   sched_dep_time_mins <dbl>, arr_time_mins <dbl>, flight_time <dbl>,
## #   pre_dep_delay <dbl>

3 - Combine fueleconomy::vehicles and fueleconomy::common to find only the records for the most common models.

fueleconomy::vehicles %>%
  semi_join(fueleconomy::common, by = c('make', 'model'))

## # A tibble: 14,531 x 12
##       id make  model  year class trans drive   cyl displ fuel    hwy   cty
##    <int> <chr> <chr> <int> <chr> <chr> <chr> <int> <dbl> <chr> <int> <int>
##  1  1833 Acura Inte~  1986 Subc~ Auto~ Fron~     4  1.60 Regu~    28    22
##  2  1834 Acura Inte~  1986 Subc~ Manu~ Fron~     4  1.60 Regu~    28    23
##  3  3037 Acura Inte~  1987 Subc~ Auto~ Fron~     4  1.60 Regu~    28    22
##  4  3038 Acura Inte~  1987 Subc~ Manu~ Fron~     4  1.60 Regu~    28    23
##  5  4183 Acura Inte~  1988 Subc~ Auto~ Fron~     4  1.60 Regu~    27    22
##  6  4184 Acura Inte~  1988 Subc~ Manu~ Fron~     4  1.60 Regu~    28    23
##  7  5303 Acura Inte~  1989 Subc~ Auto~ Fron~     4  1.60 Regu~    27    22
##  8  5304 Acura Inte~  1989 Subc~ Manu~ Fron~     4  1.60 Regu~    28    23
##  9  6442 Acura Inte~  1990 Subc~ Auto~ Fron~     4  1.80 Regu~    24    20
## 10  6443 Acura Inte~  1990 Subc~ Manu~ Fron~     4  1.80 Regu~    26    21
## # ... with 14,521 more rows
…
