Unofficial Solutions to R for Data Science
…
2. What word has the highest number of vowels? What word has the highest proportion of vowels? (Hint: what is the denominator?)

word_tbl <- tibble(
  words = stringr::words
) %>% 
  mutate(n_vowel = str_count(words, "[aeiou]"),
         n_consonant = str_count(words, "[^aeiou]"),
         n_chars = str_length(words),
         prop_vowel = n_vowel/n_chars,
         prop_consonant = n_consonant/n_chars)

word_tbl

## # A tibble: 980 x 6
##    words    n_vowel n_consonant n_chars prop_vowel prop_consonant
##    <chr>      <int>       <int>   <int>      <dbl>          <dbl>
##  1 a              1           0       1      1.00           0    
##  2 able           2           2       4      0.500          0.500
##  3 about          3           2       5      0.600          0.400
##  4 absolute       4           4       8      0.500          0.500
##  5 accept         2           4       6      0.333          0.667
##  6 account        3           4       7      0.429          0.571
##  7 achieve        4           3       7      0.571          0.429
##  8 across         2           4       6      0.333          0.667
##  9 act            1           2       3      0.333          0.667
## 10 active         3           3       6      0.500          0.500
## # ... with 970 more rows

Highest number of vowels:

word_tbl %>%
  arrange(desc(n_vowel))

## # A tibble: 980 x 6
##    words       n_vowel n_consonant n_chars prop_vowel prop_consonant
##    <chr>         <int>       <int>   <int>      <dbl>          <dbl>
##  1 appropriate       5           6      11      0.455          0.545
##  2 associate         5           4       9      0.556          0.444
##  3 available         5           4       9      0.556          0.444
##  4 colleague         5           4       9      0.556          0.444
##  5 encourage         5           4       9      0.556          0.444
##  6 experience        5           5      10      0.500          0.500
##  7 individual        5           5      10      0.500          0.500
##  8 television        5           5      10      0.500          0.500
##  9 absolute          4           4       8      0.500          0.500
## 10 achieve           4           3       7      0.571          0.429
## # ... with 970 more rows

Highest proportion of vowels:

word_tbl %>%
  arrange(desc(prop_vowel))

## # A tibble: 980 x 6
##    words  n_vowel n_consonant n_chars prop_vowel prop_consonant
##    <chr>    <int>       <int>   <int>      <dbl>          <dbl>
##  1 a            1           0       1      1.00           0    
##  2 area         3           1       4      0.750          0.250
##  3 idea         3           1       4      0.750          0.250
##  4 age          2           1       3      0.667          0.333
##  5 ago          2           1       3      0.667          0.333
##  6 air          2           1       3      0.667          0.333
##  7 die          2           1       3      0.667          0.333
##  8 due          2           1       3      0.667          0.333
##  9 eat          2           1       3      0.667          0.333
## 10 europe       4           2       6      0.667          0.333
## # ... with 970 more rows
…
