Unofficial Solutions to R for Data Science
…
## # A tibble: 1 x 1
##   xyz  
##   <chr>
## 1 a

3 - If you have the name of a variable stored in an object, e.g. var <- "mpg", how can you extract the reference variable from a tibble?

We will not be able to use $ to subset the columns. Instead we need to use [``].

tibble_mtcars <- as.tibble(mtcars)
var <- 'mpg'
tibble_mtcars[var]

## # A tibble: 32 x 1
##      mpg
##    <dbl>
##  1  21.0
##  2  21.0
##  3  22.8
##  4  21.4
##  5  18.7
##  6  18.1
##  7  14.3
##  8  24.4
##  9  22.8
## 10  19.2
## # ... with 22 more rows
…
## # A tibble: 3 x 2
##   Name    Age
##   <chr> <dbl>
## 1 Joe    24.0
## 2 May    33.0
## 3 Jack   55.0

6 - What option controls how many additional column names are printed at the footer of a tibble?

By default, information of all remaining columns are printed at the footer. To limit the number of additional column information, we can use the argument n_extra. For exampe:

print(nycflights13::flights, n_extra = 2)

## # A tibble: 336,776 x 19
##     year month   day dep_time sched_dep_time dep_delay arr_time
##    <int> <int> <int>    <int>          <int>     <dbl>    <int>
##  1  2013     1     1      517            515      2.00      830
##  2  2013     1     1      533            529      4.00      850
##  3  2013     1     1      542            540      2.00      923
##  4  2013     1     1      544            545     -1.00     1004
##  5  2013     1     1      554            600     -6.00      812
##  6  2013     1     1      554            558     -4.00      740
##  7  2013     1     1      555            600     -5.00      913
##  8  2013     1     1      557            600     -3.00      709
##  9  2013     1     1      557            600     -3.00      838
## 10  2013     1     1      558            600     -2.00      753
## # ... with 336,766 more rows, and 12 more variables: sched_arr_time <int>,
## #   arr_delay <dbl>, ...
