Unofficial Solutions to R for Data Science
…
1. Draw the following lists as nested sets:

list(a, b, list(c, d), list(e, f))

list(list(list(list(list(list(a))))))

2. What happens if you subset a tibble as if you’re subsetting a list? What are the key differences between a list and a tibble?

Subsetting a tibble with [ will return a tibble:

tblmtcars <- as.tibble(mtcars)

tblmtcars['cyl']

## # A tibble: 32 x 1
##      cyl
##    <dbl>
##  1  6.00
##  2  6.00
##  3  4.00
##  4  6.00
##  5  8.00
##  6  6.00
##  7  8.00
##  8  4.00
##  9  4.00
## 10  6.00
## # ... with 22 more rows
…
